<?xml version="1.0" encoding="UTF-8" standalone="no"?>
<svg width="51px" height="79px" viewBox="0 0 51 79" version="1.1" xmlns="http://www.w3.org/2000/svg" xmlns:xlink="http://www.w3.org/1999/xlink">
    <!-- Generator: Sketch 42 (36781) - http://www.bohemiancoding.com/sketch -->
    <title>3</title>
    <desc>Created with Sketch.</desc>
    <defs></defs>
    <g id="Welcome" stroke="none" stroke-width="1" fill="none" fill-rule="evenodd" font-weight="bold" font-family="Didot-Bold, Didot" letter-spacing="0.949675322" font-size="105">
        <g id="Hostwriter---About" transform="translate(-124.000000, -3623.000000)" fill="#FE5621">
            <g id="Modul:-Code-of-ethics" transform="translate(33.000000, 3034.000000)">
                <text id="3">
                    <tspan x="89" y="666">3</tspan>
                </text>
            </g>
        </g>
    </g>
</svg>