<?xml version="1.0" encoding="UTF-8" standalone="no"?>
<svg width="57px" height="69px" viewBox="0 0 57 69" version="1.1" xmlns="http://www.w3.org/2000/svg" xmlns:xlink="http://www.w3.org/1999/xlink">
    <!-- Generator: Sketch 42 (36781) - http://www.bohemiancoding.com/sketch -->
    <title>5</title>
    <desc>Created with Sketch.</desc>
    <defs></defs>
    <g id="Welcome" stroke="none" stroke-width="1" fill="none" fill-rule="evenodd" font-weight="800" font-family="Bodoni-Poster" letter-spacing="0.935204089" font-size="94">
        <g id="Hostwriter---About" transform="translate(-124.000000, -3952.000000)" fill="#FE5621">
            <g id="Modul:-Code-of-ethics" transform="translate(33.000000, 3034.000000)">
                <text id="5">
                    <tspan x="89" y="985">5</tspan>
                </text>
            </g>
        </g>
    </g>
</svg>